…
#> 4 2019 Apr          30
#> 5 2019 May          25
z %>%
  mutate(Month = yearmonth(Month)) %>%
  as_tsibble(index = Month)
#> # A tsibble: 5 x 2 [1M]
#>      Month Observation
#>      <mth>       <dbl>
#> 1 2019 Jan          50
#> 2 2019 Feb          23
#> 3 2019 Mar          34
#> 4 2019 Apr          30
#> 5 2019 May          25
olympic_running
#> # A tsibble: 312 x 4 [4Y]
#> # Key:       Length, Sex [14]
#>     Year Length Sex    Time
#>    <int>  <int> <chr> <dbl>
#>  1  1896    100 men    12  
#>  2  1900    100 men    11  
#>  3  1904    100 men    11  
#>  4  1908    100 men    10.8
#>  5  1912    100 men    10.8
#>  6  1916    100 men    NA  
#>  7  1920    100 men    10.8
#>  8  1924    100 men    10.6
#>  9  1928    100 men    10.8
#> 10  1932    100 men    10.3
#> # … with 302 more rows
olympic_running %>% distinct(Sex)
#> # A tibble: 2 × 1
#>   Sex  
#>   <chr>
#> 1 men  
#> 2 women
PBS
#> # A tsibble: 67,596 x 9 [1M]
#> # Key:       Concession, Type, ATC1, ATC2 [336]
#>       Month Concession   Type    ATC1  ATC1_desc ATC2  ATC2_desc Scripts  Cost
#>       <mth> <chr>        <chr>   <chr> <chr>     <chr> <chr>       <dbl> <dbl>
#>  1 1991 Jul Concessional Co-pay… A     Alimenta… A01   STOMATOL…   18228 67877
#>  2 1991 Aug Concessional Co-pay… A     Alimenta… A01   STOMATOL…   15327 57011
#>  3 1991 Sep Concessional Co-pay… A     Alimenta… A01   STOMATOL…   14775 55020
#>  4 1991 Oct Concessional Co-pay… A     Alimenta… A01   STOMATOL…   15380 57222
#>  5 1991 Nov Concessional Co-pay… A     Alimenta… A01   STOMATOL…   14371 52120
#>  6 1991 Dec Concessional Co-pay… A     Alimenta… A01   STOMATOL…   15028 54299
#>  7 1992 Jan Concessional Co-pay… A     Alimenta… A01   STOMATOL…   11040 39753
#>  8 1992 Feb Concessional Co-pay… A     Alimenta… A01   STOMATOL…   15165 54405
#>  9 1992 Mar Concessional Co-pay… A     Alimenta… A01   STOMATOL…   16898 61108
#> 10 1992 Apr Concessional Co-pay… A     Alimenta… A01   STOMATOL…   18141 65356
#> # … with 67,586 more rows
PBS %>%
  filter(ATC2 == "A10")
#> # A tsibble: 816 x 9 [1M]
#> # Key:       Concession, Type, ATC1, ATC2 [4]
#>       Month Concession   Type   ATC1  ATC1_desc ATC2  ATC2_desc Scripts   Cost
#>       <mth> <chr>        <chr>  <chr> <chr>     <chr> <chr>       <dbl>  <dbl>
#>  1 1991 Jul Concessional Co-pa… A     Alimenta… A10   ANTIDIAB…   89733 2.09e6
#>  2 1991 Aug Concessional Co-pa… A     Alimenta… A10   ANTIDIAB…   77101 1.80e6
#>  3 1991 Sep Concessional Co-pa… A     Alimenta… A10   ANTIDIAB…   76255 1.78e6
#>  4 1991 Oct Concessional Co-pa… A     Alimenta… A10   ANTIDIAB…   78681 1.85e6
#>  5 1991 Nov Concessional Co-pa… A     Alimenta… A10   ANTIDIAB…   70554 1.69e6
#>  6 1991 Dec Concessional Co-pa… A     Alimenta… A10   ANTIDIAB…   75814 1.84e6
#>  7 1992 Jan Concessional Co-pa… A     Alimenta… A10   ANTIDIAB…   64186 1.56e6
#>  8 1992 Feb Concessional Co-pa… A     Alimenta… A10   ANTIDIAB…   75899 1.73e6
#>  9 1992 Mar Concessional Co-pa… A     Alimenta… A10   ANTIDIAB…   89445 2.05e6
#> 10 1992 Apr Concessional Co-pa… A     Alimenta… A10   ANTIDIAB…   97315 2.23e6
#> # … with 806 more rows
PBS %>%
  filter(ATC2 == "A10") %>%
  select(Month, Concession, Type, Cost)
#> # A tsibble: 816 x 4 [1M]
#> # Key:       Concession, Type [4]
#>       Month Concession   Type           Cost
#>       <mth> <chr>        <chr>         <dbl>
#>  1 1991 Jul Concessional Co-payments 2092878
#>  2 1991 Aug Concessional Co-payments 1795733
#>  3 1991 Sep Concessional Co-payments 1777231
#>  4 1991 Oct Concessional Co-payments 1848507
#>  5 1991 Nov Concessional Co-payments 1686458
#>  6 1991 Dec Concessional Co-payments 1843079
#>  7 1992 Jan Concessional Co-payments 1564702
#>  8 1992 Feb Concessional Co-payments 1732508
#>  9 1992 Mar Concessional Co-payments 2046102
#> 10 1992 Apr Concessional Co-payments 2225977
#> # … with 806 more rows
PBS %>%
  filter(ATC2 == "A10") %>%
  select(Month, Concession, Type, Cost) %>%
  summarise(TotalC = sum(Cost))
#> # A tsibble: 204 x 2 [1M]
#>       Month  TotalC
#>       <mth>   <dbl>
#>  1 1991 Jul 3526591
#>  2 1991 Aug 3180891
#>  3 1991 Sep 3252221
#>  4 1991 Oct 3611003
#>  5 1991 Nov 3565869
#>  6 1991 Dec 4306371
#>  7 1992 Jan 5088335
#>  8 1992 Feb 2814520
#>  9 1992 Mar 2985811
#> 10 1992 Apr 3204780
#> # … with 194 more rows
PBS %>%
  filter(ATC2 == "A10") %>%
  select(Month, Concession, Type, Cost) %>%
  summarise(TotalC = sum(Cost)) %>%
  mutate(Cost = TotalC/1e6)
#> # A tsibble: 204 x 3 [1M]
#>       Month  TotalC  Cost
#>       <mth>   <dbl> <dbl>
#>  1 1991 Jul 3526591  3.53
#>  2 1991 Aug 3180891  3.18
#>  3 1991 Sep 3252221  3.25
#>  4 1991 Oct 3611003  3.61
#>  5 1991 Nov 3565869  3.57
#>  6 1991 Dec 4306371  4.31
#>  7 1992 Jan 5088335  5.09
#>  8 1992 Feb 2814520  2.81
#>  9 1992 Mar 2985811  2.99
#> 10 1992 Apr 3204780  3.20
#> # … with 194 more rows
PBS %>%
  filter(ATC2 == "A10") %>%
  select(Month, Concession, Type, Cost) %>%
  summarise(TotalC = sum(Cost)) %>%
  mutate(Cost = TotalC / 1e6) -> a10
prison <- readr::read_csv("https://OTexts.com/fpp3/extrafiles/prison_population.csv")
prison <- prison %>%
  mutate(Quarter = yearquarter(Date)) %>%
  select(-Date) %>%
  as_tsibble(key = c(State, Gender, Legal, Indigenous),
             index = Quarter)

prison
#> # A tsibble: 3,072 x 6 [1Q]
#> # Key:       State, Gender, Legal, Indigenous [64]
#>    State Gender Legal    Indigenous Count Quarter
#>    <chr> <chr>  <chr>    <chr>      <dbl>   <qtr>
#>  1 ACT   Female Remanded ATSI           0 2005 Q1
#>  2 ACT   Female Remanded ATSI           1 2005 Q2
#>  3 ACT   Female Remanded ATSI           0 2005 Q3
#>  4 ACT   Female Remanded ATSI           0 2005 Q4
#>  5 ACT   Female Remanded ATSI           1 2006 Q1
#>  6 ACT   Female Remanded ATSI           1 2006 Q2
#>  7 ACT   Female Remanded ATSI           1 2006 Q3
#>  8 ACT   Female Remanded ATSI           0 2006 Q4
#>  9 ACT   Female Remanded ATSI           0 2007 Q1
#> 10 ACT   Female Remanded ATSI           1 2007 Q2
#> # … with 3,062 more rows
…
```{r}


a10 %>%
  gg_subseries(Cost) +
  labs(
    y = "$ (millions)",
    title = "Australian antidiabetic drug sales"
  )
holidays <- tourism %>%
  filter(Purpose == "Holiday") %>%
  group_by(State) %>%
  summarise(Trips = sum(Trips))
holidays
#> # A tsibble: 640 x 3 [1Q]
#> # Key:       State [8]
#>    State Quarter Trips
#>    <chr>   <qtr> <dbl>
#>  1 ACT   1998 Q1  196.
#>  2 ACT   1998 Q2  127.
#>  3 ACT   1998 Q3  111.
#>  4 ACT   1998 Q4  170.
#>  5 ACT   1999 Q1  108.
#>  6 ACT   1999 Q2  125.
#>  7 ACT   1999 Q3  178.
#>  8 ACT   1999 Q4  218.
#>  9 ACT   2000 Q1  158.
#> 10 ACT   2000 Q2  155.
#> # … with 630 more rows
…
```{r}


us_retail_employment <- us_employment %>%
  filter(year(Month) >= 1990, Title == "Retail Trade") %>%
  select(-Series_ID)
autoplot(us_retail_employment, Employed) +
  labs(y = "Persons (thousands)",
       title = "Total employment in US retail")
dcmp <- us_retail_employment %>%
  model(stl = STL(Employed))
components(dcmp)
#> # A dable: 357 x 7 [1M]
#> # Key:     .model [1]
#> # :        Employed = trend + season_year + remainder
#>    .model    Month Employed  trend season_year remainder season_adjust
#>    <chr>     <mth>    <dbl>  <dbl>       <dbl>     <dbl>         <dbl>
#>  1 stl    1990 Jan   13256. 13288.      -33.0      0.836        13289.
#>  2 stl    1990 Feb   12966. 13269.     -258.     -44.6          13224.
#>  3 stl    1990 Mar   12938. 13250.     -290.     -22.1          13228.
#>  4 stl    1990 Apr   13012. 13231.     -220.       1.05         13232.
#>  5 stl    1990 May   13108. 13211.     -114.      11.3          13223.
#>  6 stl    1990 Jun   13183. 13192.      -24.3     15.5          13207.
#>  7 stl    1990 Jul   13170. 13172.      -23.2     21.6          13193.
#>  8 stl    1990 Aug   13160. 13151.       -9.52    17.8          13169.
#>  9 stl    1990 Sep   13113. 13131.      -39.5     22.0          13153.
#> 10 stl    1990 Oct   13185. 13110.       61.6     13.2          13124.
#> # … with 347 more rows
…
```


# 4.1 Some simple statistics `r tags$a(href='https://otexts.com/fpp3/some-simple-statistics.html')` 


```{r}


tourism %>%
  features(Trips, list(mean = mean)) %>%
  arrange(mean)
#> # A tibble: 304 × 4
#>    Region          State              Purpose   mean
#>    <chr>           <chr>              <chr>    <dbl>
#>  1 Kangaroo Island South Australia    Other    0.340
#>  2 MacDonnell      Northern Territory Other    0.449
#>  3 Wilderness West Tasmania           Other    0.478
#>  4 Barkly          Northern Territory Other    0.632
#>  5 Clare Valley    South Australia    Other    0.898
#>  6 Barossa         South Australia    Other    1.02 
#>  7 Kakadu Arnhem   Northern Territory Other    1.04 
#>  8 Lasseter        Northern Territory Other    1.14 
#>  9 Wimmera         Victoria           Other    1.15 
#> 10 MacDonnell      Northern Territory Visiting 1.18 
#> # … with 294 more rows
tourism %>% features(Trips, quantile)
#> # A tibble: 304 × 8
#>    Region         State           Purpose    `0%`  `25%`   `50%`  `75%` `100%`
#>    <chr>          <chr>           <chr>     <dbl>  <dbl>   <dbl>  <dbl>  <dbl>
#>  1 Adelaide       South Australia Busine…  68.7   134.   153.    177.   242.  
#>  2 Adelaide       South Australia Holiday 108.    135.   154.    172.   224.  
#>  3 Adelaide       South Australia Other    25.9    43.9   53.8    62.5  107.  
#>  4 Adelaide       South Australia Visiti… 137.    179.   206.    229.   270.  
#>  5 Adelaide Hills South Australia Busine…   0       0      1.26    3.92  28.6 
#>  6 Adelaide Hills South Australia Holiday   0       5.77   8.52   14.1   35.8 
#>  7 Adelaide Hills South Australia Other     0       0      0.908   2.09   8.95
#>  8 Adelaide Hills South Australia Visiti…   0.778   8.91  12.2    16.8   81.1 
#>  9 Alice Springs  Northern Terri… Busine…   1.01    9.13  13.3    18.5   34.1 
#> 10 Alice Springs  Northern Terri… Holiday   2.81   16.9   31.5    44.8   76.5 
#> # … with 294 more rows


```
# 4.2 ACF features `r tags$a(href='https://otexts.com/fpp3/acf-features.html')` 


```{r}


tourism %>% features(Trips, feat_acf)
#> # A tibble: 304 × 10
#>    Region       State Purpose     acf1 acf10 diff1_acf1 diff1_acf10 diff2_acf1
#>    <chr>        <chr> <chr>      <dbl> <dbl>      <dbl>       <dbl>      <dbl>
#>  1 Adelaide     Sout… Busine…  0.0333  0.131     -0.520       0.463     -0.676
#>  2 Adelaide     Sout… Holiday  0.0456  0.372     -0.343       0.614     -0.487
#>  3 Adelaide     Sout… Other    0.517   1.15      -0.409       0.383     -0.675
#>  4 Adelaide     Sout… Visiti…  0.0684  0.294     -0.394       0.452     -0.518
#>  5 Adelaide Hi… Sout… Busine…  0.0709  0.134     -0.580       0.415     -0.750
#>  6 Adelaide Hi… Sout… Holiday  0.131   0.313     -0.536       0.500     -0.716
#>  7 Adelaide Hi… Sout… Other    0.261   0.330     -0.253       0.317     -0.457
#>  8 Adelaide Hi… Sout… Visiti…  0.139   0.117     -0.472       0.239     -0.626
#>  9 Alice Sprin… Nort… Busine…  0.217   0.367     -0.500       0.381     -0.658
#> 10 Alice Sprin… Nort… Holiday -0.00660 2.11      -0.153       2.11      -0.274
#> # … with 294 more rows, and 2 more variables: diff2_acf10 <dbl>,
#> #   season_acf1 <dbl>


```
# 4.3 STL Features `r tags$a(href='https://otexts.com/fpp3/stlfeatures.html')` 


```{r}


tourism %>%
  features(Trips, feat_stl)
#> # A tibble: 304 × 12
#>    Region       State Purpose trend_strength seasonal_streng… seasonal_peak_y…
#>    <chr>        <chr> <chr>            <dbl>            <dbl>            <dbl>
#>  1 Adelaide     Sout… Busine…          0.464            0.407                3
#>  2 Adelaide     Sout… Holiday          0.554            0.619                1
#>  3 Adelaide     Sout… Other            0.746            0.202                2
#>  4 Adelaide     Sout… Visiti…          0.435            0.452                1
#>  5 Adelaide Hi… Sout… Busine…          0.464            0.179                3
#>  6 Adelaide Hi… Sout… Holiday          0.528            0.296                2
#>  7 Adelaide Hi… Sout… Other            0.593            0.404                2
#>  8 Adelaide Hi… Sout… Visiti…          0.488            0.254                0
#>  9 Alice Sprin… Nort… Busine…          0.534            0.251                0
#> 10 Alice Sprin… Nort… Holiday          0.381            0.832                3
#> # … with 294 more rows, and 6 more variables: seasonal_trough_year <dbl>,
#> #   spikiness <dbl>, linearity <dbl>, curvature <dbl>, stl_e_acf1 <dbl>,
#> #   stl_e_acf10 <dbl>
…
```

# 4.5 Exploring Australian tourism data `r tags$a(href='https://otexts.com/fpp3/exploring-australian-tourism-data.html')` 


```{r}


tourism_features <- tourism %>%
  features(Trips, feature_set(pkgs = "feasts"))
tourism_features
#> # A tibble: 304 × 51
#>    Region       State Purpose trend_strength seasonal_streng… seasonal_peak_y…
#>    <chr>        <chr> <chr>            <dbl>            <dbl>            <dbl>
#>  1 Adelaide     Sout… Busine…          0.464            0.407                3
#>  2 Adelaide     Sout… Holiday          0.554            0.619                1
#>  3 Adelaide     Sout… Other            0.746            0.202                2
#>  4 Adelaide     Sout… Visiti…          0.435            0.452                1
#>  5 Adelaide Hi… Sout… Busine…          0.464            0.179                3
#>  6 Adelaide Hi… Sout… Holiday          0.528            0.296                2
#>  7 Adelaide Hi… Sout… Other            0.593            0.404                2
#>  8 Adelaide Hi… Sout… Visiti…          0.488            0.254                0
#>  9 Alice Sprin… Nort… Busine…          0.534            0.251                0
#> 10 Alice Sprin… Nort… Holiday          0.381            0.832                3
#> # … with 294 more rows, and 45 more variables: seasonal_trough_year <dbl>,
#> #   spikiness <dbl>, linearity <dbl>, curvature <dbl>, stl_e_acf1 <dbl>,
#> #   stl_e_acf10 <dbl>, acf1 <dbl>, acf10 <dbl>, diff1_acf1 <dbl>,
#> #   diff1_acf10 <dbl>, diff2_acf1 <dbl>, diff2_acf10 <dbl>,
#> #   season_acf1 <dbl>, pacf5 <dbl>, diff1_pacf5 <dbl>, diff2_pacf5 <dbl>,
#> #   season_pacf <dbl>, zero_run_mean <dbl>, nonzero_squared_cv <dbl>,
#> #   zero_start_prop <dbl>, zero_end_prop <dbl>, lambda_guerrero <dbl>, …
…
```{r}


gdppc <- global_economy %>%
  mutate(GDP_per_capita = GDP / Population)
gdppc %>%
  filter(Country == "Sweden") %>%
  autoplot(GDP_per_capita) +
  labs(y = "$US", title = "GDP per capita for Sweden")
TSLM(GDP_per_capita ~ trend()).
fit <- gdppc %>%
  model(trend_model = TSLM(GDP_per_capita ~ trend()))
fit
#> # A mable: 263 x 2
#> # Key:     Country [263]
#>    Country             trend_model
#>    <fct>                   <model>
#>  1 Afghanistan              <TSLM>
#>  2 Albania                  <TSLM>
#>  3 Algeria                  <TSLM>
#>  4 American Samoa           <TSLM>
#>  5 Andorra                  <TSLM>
#>  6 Angola                   <TSLM>
#>  7 Antigua and Barbuda      <TSLM>
#>  8 Arab World               <TSLM>
#>  9 Argentina                <TSLM>
#> 10 Armenia                  <TSLM>
#> # … with 253 more rows
fit %>% forecast(h = "3 years")
#> # A fable: 789 x 5 [1Y]
#> # Key:     Country, .model [263]
#>    Country        .model       Year   GDP_per_capita  .mean
#>    <fct>          <chr>       <dbl>           <dist>  <dbl>
#>  1 Afghanistan    trend_model  2018     N(526, 9653)   526.
#>  2 Afghanistan    trend_model  2019     N(534, 9689)   534.
#>  3 Afghanistan    trend_model  2020     N(542, 9727)   542.
#>  4 Albania        trend_model  2018  N(4716, 476419)  4716.
#>  5 Albania        trend_model  2019  N(4867, 481086)  4867.
#>  6 Albania        trend_model  2020  N(5018, 486012)  5018.
#>  7 Algeria        trend_model  2018  N(4410, 643094)  4410.
#>  8 Algeria        trend_model  2019  N(4489, 645311)  4489.
#>  9 Algeria        trend_model  2020  N(4568, 647602)  4568.
#> 10 American Samoa trend_model  2018 N(12491, 652926) 12491.
#> # … with 779 more rows
…
```
# 5.3 Fitted values and residuals `r tags$a(href='https://otexts.com/fpp3/residuals.html')` 


```{r}


augment(beer_fit)
#> # A tsibble: 180 x 6 [1Q]
#> # Key:       .model [3]
#>    .model Quarter  Beer .fitted .resid .innov
#>    <chr>    <qtr> <dbl>   <dbl>  <dbl>  <dbl>
#>  1 Mean   1992 Q1   443    436.   6.55   6.55
#>  2 Mean   1992 Q2   410    436. -26.4  -26.4 
#>  3 Mean   1992 Q3   420    436. -16.4  -16.4 
#>  4 Mean   1992 Q4   532    436.  95.6   95.6 
#>  5 Mean   1993 Q1   433    436.  -3.45  -3.45
#>  6 Mean   1993 Q2   421    436. -15.4  -15.4 
#>  7 Mean   1993 Q3   410    436. -26.4  -26.4 
#>  8 Mean   1993 Q4   512    436.  75.6   75.6 
#>  9 Mean   1994 Q1   449    436.  12.6   12.6 
#> 10 Mean   1994 Q2   381    436. -55.4  -55.4 
#> # … with 170 more rows
…
#>  6 GOOG   NAIVE(Cl…   258  N(759, 751)  759. [723.8, 794.0]80 [705.2, 812.6]95
#>  7 GOOG   NAIVE(Cl…   259  N(759, 876)  759. [720.9, 796.8]80 [700.9, 816.9]95
#>  8 GOOG   NAIVE(Cl…   260 N(759, 1002)  759. [718.3, 799.4]80 [696.8, 820.9]95
#>  9 GOOG   NAIVE(Cl…   261 N(759, 1127)  759. [715.9, 801.9]80 [693.1, 824.7]95
#> 10 GOOG   NAIVE(Cl…   262 N(759, 1252)  759. [713.5, 804.2]80 [689.5, 828.2]95
google_2015 %>%
  model(NAIVE(Close)) %>%
  forecast(h = 10) %>%
  autoplot(google_2015) +
  labs(title="Google daily closing stock price", y="$US" )
fit <- google_2015 %>%
  model(NAIVE(Close))
sim <- fit %>% generate(h = 30, times = 5, bootstrap = TRUE)
sim
#> # A tsibble: 150 x 5 [1]
#> # Key:       Symbol, .model, .rep [5]
#>    Symbol .model         day .rep   .sim
#>    <chr>  <chr>        <dbl> <chr> <dbl>
#>  1 GOOG   NAIVE(Close)   253 1      756.
#>  2 GOOG   NAIVE(Close)   254 1      749.
#>  3 GOOG   NAIVE(Close)   255 1      751.
#>  4 GOOG   NAIVE(Close)   256 1      750.
#>  5 GOOG   NAIVE(Close)   257 1      754.
#>  6 GOOG   NAIVE(Close)   258 1      754.
#>  7 GOOG   NAIVE(Close)   259 1      758.
#>  8 GOOG   NAIVE(Close)   260 1      763.
#>  9 GOOG   NAIVE(Close)   261 1      759.
#> 10 GOOG   NAIVE(Close)   262 1      748.
#> # … with 140 more rows
google_2015 %>%
  ggplot(aes(x = day)) +
  geom_line(aes(y = Close)) +
  geom_line(aes(y = .sim, colour = as.factor(.rep)),
    data = sim) +
  labs(title="Google daily closing stock price", y="$US" ) +
  guides(colour = "none")
fc <- fit %>% forecast(h = 30, bootstrap = TRUE)
fc
#> # A fable: 30 x 5 [1]
#> # Key:     Symbol, .model [1]
#>    Symbol .model         day        Close .mean
#>    <chr>  <chr>        <dbl>       <dist> <dbl>
#>  1 GOOG   NAIVE(Close)   253 sample[5000]  759.
#>  2 GOOG   NAIVE(Close)   254 sample[5000]  759.
#>  3 GOOG   NAIVE(Close)   255 sample[5000]  758.
#>  4 GOOG   NAIVE(Close)   256 sample[5000]  759.
#>  5 GOOG   NAIVE(Close)   257 sample[5000]  759.
#>  6 GOOG   NAIVE(Close)   258 sample[5000]  759.
#>  7 GOOG   NAIVE(Close)   259 sample[5000]  759.
#>  8 GOOG   NAIVE(Close)   260 sample[5000]  759.
#>  9 GOOG   NAIVE(Close)   261 sample[5000]  759.
#> 10 GOOG   NAIVE(Close)   262 sample[5000]  759.
#> # … with 20 more rows
…
